Homework #5
…
Find the daily sales liquor sales in Ames in 2019. Summarize the number of sales, volume of liquor sold, and amount of money spent.

dat %>%
  group_by(Date) %>%
  summarize("Number of Sales" = n(),
            "Volume Sold (Gallons)" = sum(`Volume Sold (Gallons)`),
            "Amount of Money Spent" = sum(`Sale (Dollars)`))

## # A tibble: 157 x 4
##    Date       `Number of Sales` `Volume Sold (Gallons)` `Amount of Money Spent`
##    <date>                 <int>                   <dbl>                   <dbl>
##  1 2019-01-03               957                  1795.                  112009.
##  2 2019-01-04               143                   331.                   16766.
##  3 2019-01-09               944                  1773.                   99703.
##  4 2019-01-10                 2                    35.6                   1457.
##  5 2019-01-11               177                   317.                   16481.
##  6 2019-01-16               912                  2168.                  118597.
##  7 2019-01-18                62                    60.8                   4483.
##  8 2019-01-24              1221                  2434.                  139658.
##  9 2019-01-25               253                   614.                   31893.
## 10 2019-01-30              1082                  2306.                  127225.
## # ... with 147 more rows
…
